{
  "version": 8,
  "name": "MapContenders places",
  "id": "mapcontenders-places",
  "center": [0, 0],
  "zoom": 1,
  "bearing": 0,
  "pitch": 0,
  "sources": {
    "mapcontenders": {}
  },
  "sprite": "<TEMPLATED>",
  "glyphs": "https://openmaptiles.geo.data.gouv.fr/fonts/{fontstack}/{range}.pbf",
  "layers": [
    {
      "id": "easy-places",
      "source": "mapcontenders",
      "source-layer": "place",
      "filter": [
        "==",
        "difficulty",
        1
      ],
      "type": "symbol",
      "layout": {
        "icon-image": "easy",
        "icon-size": 0.12
      }
    },
    {
      "id": "medium-places",
      "source": "mapcontenders",
      "source-layer": "place",
      "filter": [
        "==",
        "difficulty",
        2
      ],
      "type": "symbol",
      "layout": {
        "icon-image": "medium",
        "icon-size": 0.12
      }
    },
    {
      "id": "hard-places",
      "source": "mapcontenders",
      "source-layer": "place",
      "filter": [
        "==",
        "difficulty",
        3
      ],
      "type": "symbol",
      "layout": {
        "icon-image": "hard",
        "icon-size": 0.12
      }
    }
  ]
}
